IMAGE                                                                     CREATED             CREATED BY                                                                                                                                                                                                                                                                                                                                                                                                                                                                                                                                                                                                                                                                                                                                                                                                                                                                                                                                                                                                                                                                                                                                                                                                            SIZE                COMMENT
sha256:979080d3e7e381dc09cea3a4d3e813a3a3cbe46b88f16219b0ae0ed086a02947   7 months ago        /bin/sh -c pip install --trusted-host pypi.python.org -r requirements.txt                                                                                                                                                                                                                                                                                                                                                                                                                                                                                                                                                                                                                                                                                                                                                                                                                                                                                                                                                                                                                                                                                                                                             32MB                
sha256:ef5d3f47bbb4415155e88bb47f580ec9b7640e5582bd125635b5a6ef3d5e3dcb   7 months ago        /bin/sh -c #(nop) ADD dir:4507aa076e65ba2090d0998b206f82423062e4bf72c259ee9755a04d2bf037fc in .                                                                                                                                                                                                                                                                                                                                                                                                                                                                                                                                                                                                                                                                                                                                                                                                                                                                                                                                                                                                                                                                                                                       5.97MB              
sha256:14a941a08c44e477c39d73eec5b002c285360f95f7ff18ec3921134a0842fb62   7 months ago        /bin/sh -c #(nop) WORKDIR /                                                                                                                                                                                                                                                                                                                                                                                                                                                                                                                                                                                                                                                                                                                                                                                                                                                                                                                                                                                                                                                                                                                                                                                           0B                  
sha256:1e5eddae71d1bb5fa3cd1030daad244591f115560a0c4b9e8ecc4f5addb279c5   7 months ago        /bin/sh -c #(nop)  CMD ["python3"]                                                                                                                                                                                                                                                                                                                                                                                                                                                                                                                                                                                                                                                                                                                                                                                                                                                                                                                                                                                                                                                                                                                                                                                    0B                  
<missing>                                                                 7 months ago        /bin/sh -c set -ex;   wget -O get-pip.py 'https://bootstrap.pypa.io/get-pip.py';   python get-pip.py   --disable-pip-version-check   --no-cache-dir   "pip==$PYTHON_PIP_VERSION"  ;  pip --version;   find /usr/local -depth   \(    \( -type d -a \( -name test -o -name tests \) \)    -o    \( -type f -a \( -name '*.pyc' -o -name '*.pyo' \) \)   \) -exec rm -rf '{}' +;  rm -f get-pip.py                                                                                                                                                                                                                                                                                                                                                                                                                                                                                                                                                                                                                                                                                                                                                                                                                      6MB                 
<missing>                                                                 7 months ago        /bin/sh -c #(nop)  ENV PYTHON_PIP_VERSION=10.0.1                                                                                                                                                                                                                                                                                                                                                                                                                                                                                                                                                                                                                                                                                                                                                                                                                                                                                                                                                                                                                                                                                                                                                                      0B                  
<missing>                                                                 7 months ago        /bin/sh -c cd /usr/local/bin  && ln -s idle3 idle  && ln -s pydoc3 pydoc  && ln -s python3 python  && ln -s python3-config python-config                                                                                                                                                                                                                                                                                                                                                                                                                                                                                                                                                                                                                                                                                                                                                                                                                                                                                                                                                                                                                                                                              32B                 
<missing>                                                                 7 months ago        /bin/sh -c set -ex   && wget -O python.tar.xz "https://www.python.org/ftp/python/${PYTHON_VERSION%%[a-z]*}/Python-$PYTHON_VERSION.tar.xz"  && wget -O python.tar.xz.asc "https://www.python.org/ftp/python/${PYTHON_VERSION%%[a-z]*}/Python-$PYTHON_VERSION.tar.xz.asc"  && export GNUPGHOME="$(mktemp -d)"  && gpg --keyserver ha.pool.sks-keyservers.net --recv-keys "$GPG_KEY"  && gpg --batch --verify python.tar.xz.asc python.tar.xz  && { command -v gpgconf > /dev/null && gpgconf --kill all || :; }  && rm -rf "$GNUPGHOME" python.tar.xz.asc  && mkdir -p /usr/src/python  && tar -xJC /usr/src/python --strip-components=1 -f python.tar.xz  && rm python.tar.xz   && cd /usr/src/python  && gnuArch="$(dpkg-architecture --query DEB_BUILD_GNU_TYPE)"  && ./configure   --build="$gnuArch"   --enable-loadable-sqlite-extensions   --enable-shared   --with-system-expat   --with-system-ffi   --without-ensurepip  && make -j "$(nproc)"  && make install  && ldconfig   && find /usr/local -depth   \(    \( -type d -a \( -name test -o -name tests \) \)    -o    \( -type f -a \( -name '*.pyc' -o -name '*.pyo' \) \)   \) -exec rm -rf '{}' +  && rm -rf /usr/src/python   && python3 --version   65.2MB              
<missing>                                                                 7 months ago        /bin/sh -c #(nop)  ENV PYTHON_VERSION=3.6.6                                                                                                                                                                                                                                                                                                                                                                                                                                                                                                                                                                                                                                                                                                                                                                                                                                                                                                                                                                                                                                                                                                                                                                           0B                  
<missing>                                                                 7 months ago        /bin/sh -c #(nop)  ENV GPG_KEY=0D96DF4D4110E5C43FBFB17F2D347EA6AA65421D                                                                                                                                                                                                                                                                                                                                                                                                                                                                                                                                                                                                                                                                                                                                                                                                                                                                                                                                                                                                                                                                                                                                               0B                  
<missing>                                                                 7 months ago        /bin/sh -c apt-get update && apt-get install -y --no-install-recommends   tk-dev  && rm -rf /var/lib/apt/lists/*                                                                                                                                                                                                                                                                                                                                                                                                                                                                                                                                                                                                                                                                                                                                                                                                                                                                                                                                                                                                                                                                                                      16.8MB              
<missing>                                                                 7 months ago        /bin/sh -c #(nop)  ENV LANG=C.UTF-8                                                                                                                                                                                                                                                                                                                                                                                                                                                                                                                                                                                                                                                                                                                                                                                                                                                                                                                                                                                                                                                                                                                                                                                   0B                  
<missing>                                                                 7 months ago        /bin/sh -c #(nop)  ENV PATH=/usr/local/bin:/usr/local/sbin:/usr/local/bin:/usr/sbin:/usr/bin:/sbin:/bin                                                                                                                                                                                                                                                                                                                                                                                                                                                                                                                                                                                                                                                                                                                                                                                                                                                                                                                                                                                                                                                                                                               0B                  
<missing>                                                                 7 months ago        /bin/sh -c set -ex;  apt-get update;  apt-get install -y --no-install-recommends   autoconf   automake   bzip2   dpkg-dev   file   g++   gcc   imagemagick   libbz2-dev   libc6-dev   libcurl4-openssl-dev   libdb-dev   libevent-dev   libffi-dev   libgdbm-dev   libgeoip-dev   libglib2.0-dev   libjpeg-dev   libkrb5-dev   liblzma-dev   libmagickcore-dev   libmagickwand-dev   libncurses5-dev   libncursesw5-dev   libpng-dev   libpq-dev   libreadline-dev   libsqlite3-dev   libssl-dev   libtool   libwebp-dev   libxml2-dev   libxslt-dev   libyaml-dev   make   patch   xz-utils   zlib1g-dev     $(    if apt-cache show 'default-libmysqlclient-dev' 2>/dev/null | grep -q '^Version:'; then     echo 'default-libmysqlclient-dev';    else     echo 'libmysqlclient-dev';    fi   )  ;  rm -rf /var/lib/apt/lists/*                                                                                                                                                                                                                                                                                                                                                                                    556MB               
<missing>                                                                 7 months ago        /bin/sh -c apt-get update && apt-get install -y --no-install-recommends   bzr   git   mercurial   openssh-client   subversion     procps  && rm -rf /var/lib/apt/lists/*                                                                                                                                                                                                                                                                                                                                                                                                                                                                                                                                                                                                                                                                                                                                                                                                                                                                                                                                                                                                                                              142MB               
<missing>                                                                 7 months ago        /bin/sh -c set -ex;  if ! command -v gpg > /dev/null; then   apt-get update;   apt-get install -y --no-install-recommends    gnupg    dirmngr   ;   rm -rf /var/lib/apt/lists/*;  fi                                                                                                                                                                                                                                                                                                                                                                                                                                                                                                                                                                                                                                                                                                                                                                                                                                                                                                                                                                                                                                  7.8MB               
<missing>                                                                 7 months ago        /bin/sh -c apt-get update && apt-get install -y --no-install-recommends   ca-certificates   curl   netbase   wget  && rm -rf /var/lib/apt/lists/*                                                                                                                                                                                                                                                                                                                                                                                                                                                                                                                                                                                                                                                                                                                                                                                                                                                                                                                                                                                                                                                                     23.2MB              
<missing>                                                                 7 months ago        /bin/sh -c #(nop)  CMD ["bash"]                                                                                                                                                                                                                                                                                                                                                                                                                                                                                                                                                                                                                                                                                                                                                                                                                                                                                                                                                                                                                                                                                                                                                                                       0B                  
<missing>                                                                 7 months ago        /bin/sh -c #(nop) ADD file:370028dca6e8ca9ed228549d52231cf8139515cc3a14c00aaed75a60b679775f in /                                                                                                                                                                                                                                                                                                                                                                                                                                                                                                                                                                                                                                                                                                                                                                                                                                                                                                                                                                                                                                                                                                                      101MB               
